Gen     Best     Avg
0     0.66     0.98
1     0.66     0.82
2     0.66     0.71
3     0.66     0.69
4     0.66     0.69
5     0.66     0.68
6     0.66     0.67
7     0.66     0.68
8     0.66     0.67
9     0.66     0.67
10     0.66     0.67
11     0.66     0.67
test cases: 1
Forward: 0   Left: 0   Right: 0
